{
  "data": [
    {
      "products": [
        {
          "product_id": "15572",
          "offers": [
            {
              "shop_id": "311322",
              "shop_name": "manomano.de",
              "name": "Nike Air Jordan 1 Low",
              "price": "75.12",
              "offer_date": "2022-09-20T11:47:12+02:00"
            },
            {
              "shop_id": "22625",
              "shop_name": "svh24.de",
              "name": "Nike Air Jordan 1 Low",
              "price": "75.12",
              "offer_date": "2022-09-20T11:47:12+02:00"
            },
            {
              "shop_id": "325913",
              "shop_name": "power-tools.de",
              "name": "Nike Air Jordan 1 Low",
              "price": "77.62",
              "offer_date": "2022-09-20T11:47:12+02:00"
            },
            {
              "shop_id": "325874",
              "shop_name": "voelkner.de (Marktplatzhändler)",
              "name": "Nike Air Jordan 1 Low",
              "price": "81.38",
              "offer_date": "2022-09-20T11:47:12+02:00"
            },
            {
              "shop_id": "9701",
              "shop_name": "svh24",
              "name": "Nike Air Jordan 1 Low",
              "price": "81.98",
              "offer_date": "2022-09-20T11:47:12+02:00"
            },
            {
              "shop_id": "297257",
              "shop_name": "contorion.de",
              "name": "Nike Air Jordan 1 Low",
              "price": "81.98",
              "offer_date": "2022-09-20T11:47:12+02:00"
            },
            {
              "shop_id": "26895",
              "shop_name": "kaufland.de",
              "name": "Nike Air Jordan 1 Low",
              "price": "81.99",
              "offer_date": "2022-09-20T11:47:12+02:00"
            },
            {
              "shop_id": "9701",
              "shop_name": "priara",
              "name": "Nike Air Jordan 1 Low",
              "price": "84.41",
              "offer_date": "2022-09-20T11:47:12+02:00"
            },
            {
              "shop_id": "9701",
              "shop_name": "och_gmbh",
              "name": "Nike Air Jordan 1 Low",
              "price": "107.58",
              "offer_date": "2022-09-20T11:47:12+02:00"
            },
            {
              "shop_id": "319004",
              "shop_name": "b2b-discount.de",
              "name": "Nike Air Jordan 1 Low",
              "price": "108.48",
              "offer_date": "2022-09-20T11:47:12+02:00"
            },
            {
              "shop_id": "315001",
              "shop_name": "bauportal24h.de",
              "name": "Nike Air Jordan 1 Low",
              "price": "109.95",
              "offer_date": "2022-09-20T11:47:12+02:00"
            }
          ]
        },
        {
          "product_id": "24366",
          "offers": [
            {
              "shop_id": "296487",
              "shop_name": "banemo.de",
              "name": "Reebok Club C85",
              "price": "44.95",
              "offer_date": "2022-09-20T11:47:13+02:00"
            },
            {
              "shop_id": "9701",
              "shop_name": "banemo",
              "name": "Reebok Club C85",
              "price": "45.8",
              "offer_date": "2022-09-20T11:47:13+02:00"
            },
            {
              "shop_id": "325874",
              "shop_name": "voelkner.de (Marktplatzhändler)",
              "name": "Reebok Club C85",
              "price": "47.81",
              "offer_date": "2022-09-20T11:47:13+02:00"
            },
            {
              "shop_id": "309419",
              "shop_name": "tooler.de",
              "name": "Reebok Club C85",
              "price": "53.78",
              "offer_date": "2022-09-20T11:47:13+02:00"
            },
            {
              "shop_id": "299556",
              "shop_name": "fnshop.de",
              "name": "Reebok Club C85",
              "price": "53.79",
              "offer_date": "2022-09-20T11:47:13+02:00"
            },
            {
              "shop_id": "12041",
              "shop_name": "Reidl GmbH &amp; Co. KG",
              "name": "Reebok Club C85",
              "price": "56.48",
              "offer_date": "2022-09-20T11:47:13+02:00"
            },
            {
              "shop_id": "310704",
              "shop_name": "elektrowerkzeug-shop.de",
              "name": "Reebok Club C85",
              "price": "57.0",
              "offer_date": "2022-09-20T11:47:13+02:00"
            },
            {
              "shop_id": "22625",
              "shop_name": "svh24.de",
              "name": "Reebok Club C85",
              "price": "57.11",
              "offer_date": "2022-09-20T11:47:13+02:00"
            },
            {
              "shop_id": "277382",
              "shop_name": "j-kesselshop.de",
              "name": "Reebok Club C85",
              "price": "57.87",
              "offer_date": "2022-09-20T11:47:13+02:00"
            },
            {
              "shop_id": "311322",
              "shop_name": "manomano.de",
              "name": "Reebok Club C85",
              "price": "60.65",
              "offer_date": "2022-09-20T11:47:13+02:00"
            },
            {
              "shop_id": "12041",
              "shop_name": "BlumenbeckerIndustriebedarf GmbH",
              "name": "Reebok Club C85",
              "price": "61.42",
              "offer_date": "2022-09-20T11:47:13+02:00"
            },
            {
              "shop_id": "9701",
              "shop_name": "ihttimme24",
              "name": "Reebok Club C85",
              "price": "61.77",
              "offer_date": "2022-09-20T11:47:13+02:00"
            },
            {
              "shop_id": "9701",
              "shop_name": "och_gmbh",
              "name": "Reebok Club C85",
              "price": "61.86",
              "offer_date": "2022-09-20T11:47:13+02:00"
            },
            {
              "shop_id": "12041",
              "shop_name": "Dönges",
              "name": "Reebok Club C85",
              "price": "62.62",
              "offer_date": "2022-09-20T11:47:13+02:00"
            },
            {
              "shop_id": "9701",
              "shop_name": "doenges1903",
              "name": "Reebok Club C85",
              "price": "62.62",
              "offer_date": "2022-09-20T11:47:13+02:00"
            }
          ]
        },
        {
          "product_id": "29830",
          "offers": [
            {
              "shop_id": "296487",
              "shop_name": "banemo.de",
              "name": "Adidas Yeezy 350",
              "price": "51.2",
              "offer_date": "2022-09-20T11:47:13+02:00"
            },
            {
              "shop_id": "12041",
              "shop_name": "Banemo - Rund ums Haus",
              "name": "Adidas Yeezy 350",
              "price": "51.21",
              "offer_date": "2022-09-20T11:47:13+02:00"
            },
            {
              "shop_id": "326997",
              "shop_name": "mobaupro-uebach.de",
              "name": "Adidas Yeezy 350",
              "price": "52.59",
              "offer_date": "2022-09-20T11:47:13+02:00"
            },
            {
              "shop_id": "304571",
              "shop_name": "atala.de",
              "name": "Adidas Yeezy 350",
              "price": "53.47",
              "offer_date": "2022-09-20T11:47:13+02:00"
            },
            {
              "shop_id": "309144",
              "shop_name": "toolineo.de",
              "name": "Adidas Yeezy 350",
              "price": "55.36",
              "offer_date": "2022-09-20T11:47:13+02:00"
            },
            {
              "shop_id": "29203",
              "shop_name": "bueromarkt-ag.de",
              "name": "Adidas Yeezy 350",
              "price": "56.08",
              "offer_date": "2022-09-20T11:47:13+02:00"
            },
            {
              "shop_id": "277382",
              "shop_name": "j-kesselshop.de",
              "name": "Adidas Yeezy 350",
              "price": "56.1",
              "offer_date": "2022-09-20T11:47:13+02:00"
            },
            {
              "shop_id": "309419",
              "shop_name": "tooler.de",
              "name": "Adidas Yeezy 350",
              "price": "56.3",
              "offer_date": "2022-09-20T11:47:13+02:00"
            },
            {
              "shop_id": "315586",
              "shop_name": "hausunddach.de",
              "name": "Adidas Yeezy 350",
              "price": "57.98",
              "offer_date": "2022-09-20T11:47:13+02:00"
            },
            {
              "shop_id": "22625",
              "shop_name": "svh24.de",
              "name": "Adidas Yeezy 350",
              "price": "59.54",
              "offer_date": "2022-09-20T11:47:13+02:00"
            },
            {
              "shop_id": "310704",
              "shop_name": "elektrowerkzeug-shop.de",
              "name": "Adidas Yeezy 350",
              "price": "61.0",
              "offer_date": "2022-09-20T11:47:14+02:00"
            },
            {
              "shop_id": "317105",
              "shop_name": "galaxus.de",
              "name": "Adidas Yeezy 350",
              "price": "61.2",
              "offer_date": "2022-09-20T11:47:14+02:00"
            },
            {
              "shop_id": "325874",
              "shop_name": "voelkner.de (Marktplatzhändler)",
              "name": "Adidas Yeezy 350",
              "price": "63.36",
              "offer_date": "2022-09-20T11:47:14+02:00"
            },
            {
              "shop_id": "26895",
              "shop_name": "kaufland.de",
              "name": "Adidas Yeezy 350",
              "price": "64.04",
              "offer_date": "2022-09-20T11:47:14+02:00"
            },
            {
              "shop_id": "316291",
              "shop_name": "emax-haustechnik.de",
              "name": "Adidas Yeezy 350",
              "price": "64.88",
              "offer_date": "2022-09-20T11:47:14+02:00"
            }
          ]
        }
      ]
    }
  ]
}
